[
  {
    "_id": 1,
    "name": "Lexie",
    "startingPoint": "KEVU",
    "endingPoint": "KCPS",
    "startingTime": "03/27/2018",
    "durationHours":1,
    "numPassengers":4,
    "pilotID":1,
    "planeID":1 

  },

  {
"_id":2,
"name":"American Airlines",
"startingPoint":"India",
"endingPoint":"chicago",
"startingTime": "04/27/2018",
"durationHours": 20,
"pilotId": "2",
"planeId": "2"
  },

{
"_id":3,
"name":"British Airways",
"startingPoint":"sydney",
"endingPoint":"newyork",
"startingTime": "05/27/2018",
"durationHours": 6,
"pilotId": "3",
"planeId": "3"
  },

  {
    "_id": 4,
"name": "Qatar",
"startingPoint": "delhi",
"endingPoint": "chennai",
"startingTime": "06/27/2018",
"durationHours":4,
"pilotId":4,
"planeId":4
  }
  

  ]